<?xml version="1.0" encoding="UTF-8" standalone="no"?>
<svg
   xmlns:dc="http://purl.org/dc/elements/1.1/"
   xmlns:cc="http://creativecommons.org/ns#"
   xmlns:rdf="http://www.w3.org/1999/02/22-rdf-syntax-ns#"
   xmlns:svg="http://www.w3.org/2000/svg"
   xmlns="http://www.w3.org/2000/svg"
   xmlns:sodipodi="http://sodipodi.sourceforge.net/DTD/sodipodi-0.dtd"
   xmlns:inkscape="http://www.inkscape.org/namespaces/inkscape"
   id="Слой_1"
   data-name="Слой 1"
   viewBox="0 0 24 24"
   version="1.1"
   sodipodi:docname="file_footprint.svg"
   inkscape:version="1.0.1 (3bc2e813f5, 2020-09-07)">
  <sodipodi:namedview
     pagecolor="#ffffff"
     bordercolor="#666666"
     borderopacity="1"
     objecttolerance="10"
     gridtolerance="10"
     guidetolerance="10"
     inkscape:pageopacity="0"
     inkscape:pageshadow="2"
     inkscape:window-width="1449"
     inkscape:window-height="943"
     id="namedview117266"
     showgrid="true"
     inkscape:zoom="15.145833"
     inkscape:cx="10.769155"
     inkscape:cy="8.1603029"
     inkscape:window-x="0"
     inkscape:window-y="37"
     inkscape:window-maximized="0"
     inkscape:current-layer="Слой_1">
    <inkscape:grid
       type="xygrid"
       id="grid240649"
       spacingx="0.5"
       spacingy="0.5"
       color="#bfbfff"
       opacity="0.1254902"
       empspacing="2" />
  </sodipodi:namedview>
  <metadata
     id="metadata43">
    <rdf:RDF>
      <cc:Work
         rdf:about="">
        <cc:license
           rdf:resource="http://creativecommons.org/licenses/by-sa/4.0/" />
        <dc:format>image/svg+xml</dc:format>
        <dc:type
           rdf:resource="http://purl.org/dc/dcmitype/StillImage" />
        <dc:title>add_arc</dc:title>
      </cc:Work>
      <cc:License
         rdf:about="http://creativecommons.org/licenses/by-sa/4.0/">
        <cc:permits
           rdf:resource="http://creativecommons.org/ns#Reproduction" />
        <cc:permits
           rdf:resource="http://creativecommons.org/ns#Distribution" />
        <cc:requires
           rdf:resource="http://creativecommons.org/ns#Notice" />
        <cc:requires
           rdf:resource="http://creativecommons.org/ns#Attribution" />
        <cc:permits
           rdf:resource="http://creativecommons.org/ns#DerivativeWorks" />
        <cc:requires
           rdf:resource="http://creativecommons.org/ns#ShareAlike" />
      </cc:License>
    </rdf:RDF>
  </metadata>
  <defs
     id="defs117193">
    <style
       id="style117188">.cls-1,.cls-2,.cls-4,.cls-7,.cls-8{fill:none;}.cls-2{stroke:#545454;}.cls-2,.cls-4,.cls-7{stroke-linecap:round;stroke-linejoin:round;}.cls-3{fill:#1a81c4;}.cls-4,.cls-7,.cls-8{stroke:#b9b9b9;}.cls-5{clip-path:url(#clip-path);}.cls-6{fill:#545454;}.cls-7,.cls-8{stroke-width:0.25px;}.cls-8{stroke-miterlimit:10;}</style>
    <clipPath
       id="clip-path">
      <rect
         class="cls-1"
         x="-29"
         y="1"
         width="24"
         height="24"
         rx="4"
         id="rect117190" />
    </clipPath>
  </defs>
  <title
     id="title117195">file_footprint</title>
  <polygon
     class="cls-2"
     points="5.527,14.782 5.527,18.521 20.492,18.521 20.504,7.46 5.527,7.46 5.527,10.821 6.828,11.993 6.828,13.61 "
     id="polygon117197"
     transform="translate(-1,-1)" />
  <rect
     class="cls-3"
     x="14.6096"
     y="15.243999"
     width="3.2533"
     height="4.5545998"
     id="rect117199" />
  <rect
     class="cls-3"
     x="6.1595001"
     y="15.243999"
     width="3.2533"
     height="4.5545998"
     id="rect117201" />
  <rect
     class="cls-3"
     x="10.3829"
     y="15.243999"
     width="3.2534001"
     height="4.5545998"
     id="rect117203" />
  <rect
     class="cls-3"
     x="14.6096"
     y="4.1826"
     width="3.2533"
     height="4.5546999"
     id="rect117205" />
  <rect
     class="cls-3"
     x="6.1595001"
     y="4.1826"
     width="3.2533"
     height="4.5546999"
     id="rect117207" />
  <rect
     class="cls-3"
     x="10.3829"
     y="4.1826"
     width="3.2534001"
     height="4.5546999"
     id="rect117209" />
  <polyline
     class="cls-4"
     points="24.5 5.556 24.5 24.5 1.5 24.5 1.5 1.5 20.432 1.5"
     id="polyline117211"
     transform="translate(-1,-1)" />
  <polygon
     class="cls-4"
     points="20.52,5.48 20.52,1.503 24.497,5.48 "
     id="polygon117213"
     transform="translate(-1,-1)" />
</svg>
