<?xml version="1.0" encoding="UTF-8" standalone="no"?>
<svg
   xmlns:dc="http://purl.org/dc/elements/1.1/"
   xmlns:cc="http://creativecommons.org/ns#"
   xmlns:rdf="http://www.w3.org/1999/02/22-rdf-syntax-ns#"
   xmlns:svg="http://www.w3.org/2000/svg"
   xmlns="http://www.w3.org/2000/svg"
   xmlns:sodipodi="http://sodipodi.sourceforge.net/DTD/sodipodi-0.dtd"
   xmlns:inkscape="http://www.inkscape.org/namespaces/inkscape"
   id="Слой_1"
   data-name="Слой 1"
   viewBox="0 0 24 24"
   version="1.1"
   sodipodi:docname="leave_sheet.svg"
   inkscape:version="0.92.2 5c3e80d, 2017-08-06"
   inkscape:export-filename="/Users/jeff/kicad_dev/kicad/bitmaps_png/png_26/leave_sheet.png"
   inkscape:export-xdpi="96"
   inkscape:export-ydpi="96">
  <sodipodi:namedview
     pagecolor="#ffffff"
     bordercolor="#666666"
     borderopacity="1"
     objecttolerance="10"
     gridtolerance="10"
     guidetolerance="10"
     inkscape:pageopacity="0"
     inkscape:pageshadow="2"
     inkscape:window-width="1440"
     inkscape:window-height="800"
     id="namedview30"
     showgrid="true"
     inkscape:zoom="27.961538"
     inkscape:cx="9.6740027"
     inkscape:cy="12.642366"
     inkscape:window-x="0"
     inkscape:window-y="1"
     inkscape:window-maximized="1"
     inkscape:document-rotation="0"
     inkscape:current-layer="Слой_1">
    <inkscape:grid
       type="xygrid"
       id="grid_kicad"
       spacingx="0.5"
       spacingy="0.5"
       color="#9999ff"
       opacity="0.13"
       empspacing="2" />
  </sodipodi:namedview>
  <metadata
     id="metadata43">
    <rdf:RDF>
      <cc:Work
         rdf:about="">
        <cc:license
           rdf:resource="http://creativecommons.org/licenses/by-sa/4.0/" />
        <dc:format>image/svg+xml</dc:format>
        <dc:type
           rdf:resource="http://purl.org/dc/dcmitype/StillImage" />
        <dc:title>add_arc</dc:title>
      </cc:Work>
      <cc:License
         rdf:about="http://creativecommons.org/licenses/by-sa/4.0/">
        <cc:permits
           rdf:resource="http://creativecommons.org/ns#Reproduction" />
        <cc:permits
           rdf:resource="http://creativecommons.org/ns#Distribution" />
        <cc:requires
           rdf:resource="http://creativecommons.org/ns#Notice" />
        <cc:requires
           rdf:resource="http://creativecommons.org/ns#Attribution" />
        <cc:permits
           rdf:resource="http://creativecommons.org/ns#DerivativeWorks" />
        <cc:requires
           rdf:resource="http://creativecommons.org/ns#ShareAlike" />
      </cc:License>
    </rdf:RDF>
  </metadata>
  <defs
     id="defs25553">
    <style
       id="style25551">.cls-1,.cls-4{fill:none;stroke-linecap:round;stroke-linejoin:round;}.cls-1{stroke:#545454;}.cls-2{fill:#b9b9b9;}.cls-3{fill:#bf2641;}.cls-4{stroke:#f5f5f5;stroke-width:2px;}</style>
  </defs>
  <title
     id="title25555">leave_sheet</title>
  <polyline
     class="cls-1"
     points="2.315 6.236 2.315 11.558 4.087 11.558"
     id="polyline25557"
     transform="translate(-1.315,-1.5578706)"
     style="stroke:#1a81c4;stroke-width:2;stroke-miterlimit:4;stroke-dasharray:none;stroke-opacity:1" />
  <path
     id="polyline25559"
     style="fill:none;stroke:#1a81c4;stroke-width:2;stroke-linecap:square;stroke-linejoin:round;stroke-miterlimit:4;stroke-dasharray:none;stroke-opacity:1"
     transform="translate(-1.087,-1.328)"
     d="M 5.382,19.328 H 4.087 v -8 h 1.5"
     class="cls-1"
     sodipodi:nodetypes="cccc" />
  <rect
     class="cls-2"
     x="0"
     y="0"
     width="23"
     height="5"
     id="rect25561"
     style="fill:#606060;fill-opacity:1" />
  <rect
     class="cls-2"
     x="5"
     y="8"
     width="16"
     height="5"
     id="rect25563"
     style="fill:#606060;fill-opacity:1;stroke-width:0.981209" />
  <rect
     class="cls-2"
     x="5"
     y="16"
     width="15.9767"
     height="4.9766998"
     id="rect25565"
     style="fill:#606060;fill-opacity:1;stroke-width:0.981209" />
  <ellipse
     class="cls-3"
     cx="16.977501"
     cy="17"
     rx="7.0065999"
     ry="7"
     id="ellipse25567" />
  <path
     class="cls-4"
     d="m 13.11,17.2093 h 6.3317 A 1.6684,1.6684 0 0 0 21.11,15.5409 v 0 a 1.6683,1.6683 0 0 0 -1.6683,-1.6683"
     id="path25569" />
  <polyline
     class="cls-4"
     points="16.643 20.964 13.89 18.209 16.643 15.454"
     id="polyline25571"
     transform="translate(-1,-1)" />
</svg>
