<?xml version="1.0" encoding="UTF-8" standalone="no"?>
<svg
   xmlns:dc="http://purl.org/dc/elements/1.1/"
   xmlns:cc="http://creativecommons.org/ns#"
   xmlns:rdf="http://www.w3.org/1999/02/22-rdf-syntax-ns#"
   xmlns:svg="http://www.w3.org/2000/svg"
   xmlns="http://www.w3.org/2000/svg"
   xmlns:xlink="http://www.w3.org/1999/xlink"
   xmlns:sodipodi="http://sodipodi.sourceforge.net/DTD/sodipodi-0.dtd"
   xmlns:inkscape="http://www.inkscape.org/namespaces/inkscape"
   id="Слой_1"
   data-name="Слой 1"
   viewBox="0 0 24 24"
   version="1.1"
   sodipodi:docname="show_zone_disable.svg"
   inkscape:version="1.0.1 (1.0.1+r74)">
  <sodipodi:namedview
     pagecolor="#ffffff"
     bordercolor="#666666"
     borderopacity="1"
     objecttolerance="10"
     gridtolerance="10"
     guidetolerance="10"
     inkscape:pageopacity="0"
     inkscape:pageshadow="2"
     inkscape:window-width="2560"
     inkscape:window-height="1371"
     id="namedview42"
     showgrid="true"
     inkscape:zoom="41"
     inkscape:cx="7.304878"
     inkscape:cy="12"
     inkscape:window-x="0"
     inkscape:window-y="0"
     inkscape:window-maximized="1"
     inkscape:current-layer="Слой_1"
     inkscape:document-rotation="0">
    <inkscape:grid
       type="xygrid"
       id="grid240581"
       spacingx="0.5"
       spacingy="0.5"
       color="#cacaff"
       opacity="0.1254902"
       empspacing="2" />
  </sodipodi:namedview>
  <metadata
     id="metadata43">
    <rdf:RDF>
      <cc:Work
         rdf:about="">
        <cc:license
           rdf:resource="http://creativecommons.org/licenses/by-sa/4.0/" />
        <dc:format>image/svg+xml</dc:format>
        <dc:type
           rdf:resource="http://purl.org/dc/dcmitype/StillImage" />
        <dc:title>add_arc</dc:title>
      </cc:Work>
      <cc:License
         rdf:about="http://creativecommons.org/licenses/by-sa/4.0/">
        <cc:permits
           rdf:resource="http://creativecommons.org/ns#Reproduction" />
        <cc:permits
           rdf:resource="http://creativecommons.org/ns#Distribution" />
        <cc:requires
           rdf:resource="http://creativecommons.org/ns#Notice" />
        <cc:requires
           rdf:resource="http://creativecommons.org/ns#Attribution" />
        <cc:permits
           rdf:resource="http://creativecommons.org/ns#DerivativeWorks" />
        <cc:requires
           rdf:resource="http://creativecommons.org/ns#ShareAlike" />
      </cc:License>
    </rdf:RDF>
  </metadata>
  <defs
     id="defs11">
    <style
       id="style3">.cls-1{fill:#b9b9b9;}.cls-2{fill:#595959;}.cls-3{fill:url(#Безымянный_градиент_19);}.cls-4{fill:url(#Безымянный_градиент_19-2);}.cls-5{fill:#545454;}.cls-6{fill:#bf2641;}.cls-7{fill:#f5f5f5;}</style>
    <linearGradient
       id="Безымянный_градиент_19"
       x1="8.3372"
       y1="15.5299"
       x2="8.3372"
       y2="12.9228"
       gradientUnits="userSpaceOnUse">
      <stop
         offset="0"
         stop-color="#ececec"
         id="stop5" />
      <stop
         offset="1"
         stop-color="#c6c6c5"
         id="stop7" />
    </linearGradient>
    <linearGradient
       id="Безымянный_градиент_19-2"
       x1="9.5617"
       y1="15.5299"
       x2="9.5617"
       y2="12.9228"
       xlink:href="#Безымянный_градиент_19" />
  </defs>
  <title
     id="title13">show_zone_disable</title>
  <path
     id="polygon838"
     style="fill:none;stroke:#1a81c4;stroke-width:2;stroke-miterlimit:4;stroke-dasharray:2,2;stroke-dashoffset:0"
     d="m 2.5,12.5 v 9 h 19 v -19 h -13 v 10 z"
     class="st0"
     sodipodi:nodetypes="ccccccc" />
  <path
     id="path2776"
     style="fill:#545454;fill-opacity:1;stroke:#ffffff;stroke-width:1.67369;stroke-miterlimit:0;stroke-dasharray:none;stroke-opacity:1;paint-order:stroke fill markers"
     d="M 17.112197,8.9765627 A 2.1703036,2.010251 0 0 0 14.940915,10.988281 2.1703036,2.010251 0 0 0 17.112197,12.998047 2.1703036,2.010251 0 0 0 18.985621,12 h 3.350388 c 0.04301,0 0.07806,-0.03333 0.07806,-0.07422 V 10.074219 C 22.414069,10.033333 22.379019,10 22.336009,10 H 19 A 2.1703036,2.010251 0 0 0 17.112197,8.9765627 Z" />
</svg>
