<?xml version="1.0" encoding="UTF-8" standalone="no"?>
<svg
   xmlns:dc="http://purl.org/dc/elements/1.1/"
   xmlns:cc="http://creativecommons.org/ns#"
   xmlns:rdf="http://www.w3.org/1999/02/22-rdf-syntax-ns#"
   xmlns:svg="http://www.w3.org/2000/svg"
   xmlns="http://www.w3.org/2000/svg"
   xmlns:sodipodi="http://sodipodi.sourceforge.net/DTD/sodipodi-0.dtd"
   xmlns:inkscape="http://www.inkscape.org/namespaces/inkscape"
   id="Слой_1"
   data-name="Слой 1"
   viewBox="0 0 24 24"
   version="1.1"
   sodipodi:docname="update_lib_symbols_in_schematic.svg"
   inkscape:version="0.92.2 5c3e80d, 2017-08-06"
   inkscape:export-filename="/Users/jeff/kicad_dev/kicad/bitmaps_png/png_26/update_lib_symbols_in_schematic.png"
   inkscape:export-xdpi="96"
   inkscape:export-ydpi="96">
  <sodipodi:namedview
     pagecolor="#ffffff"
     bordercolor="#666666"
     borderopacity="1"
     objecttolerance="10"
     gridtolerance="10"
     guidetolerance="10"
     inkscape:pageopacity="0"
     inkscape:pageshadow="2"
     inkscape:window-width="2560"
     inkscape:window-height="1371"
     id="namedview30"
     showgrid="true"
     inkscape:zoom="27.961538"
     inkscape:cx="-7.4030264"
     inkscape:cy="13"
     inkscape:window-x="0"
     inkscape:window-y="0"
     inkscape:window-maximized="1"
     inkscape:document-rotation="0"
     inkscape:current-layer="Слой_1">
    <inkscape:grid
       type="xygrid"
       id="grid_kicad"
       spacingx="0.5"
       spacingy="0.5"
       color="#9999ff"
       opacity="0.13"
       empspacing="2" />
  </sodipodi:namedview>
  <metadata
     id="metadata43">
    <rdf:RDF>
      <cc:Work
         rdf:about="">
        <cc:license
           rdf:resource="http://creativecommons.org/licenses/by-sa/4.0/" />
        <dc:format>image/svg+xml</dc:format>
        <dc:type
           rdf:resource="http://purl.org/dc/dcmitype/StillImage" />
        <dc:title>add_arc</dc:title>
      </cc:Work>
      <cc:License
         rdf:about="http://creativecommons.org/licenses/by-sa/4.0/">
        <cc:permits
           rdf:resource="http://creativecommons.org/ns#Reproduction" />
        <cc:permits
           rdf:resource="http://creativecommons.org/ns#Distribution" />
        <cc:requires
           rdf:resource="http://creativecommons.org/ns#Notice" />
        <cc:requires
           rdf:resource="http://creativecommons.org/ns#Attribution" />
        <cc:permits
           rdf:resource="http://creativecommons.org/ns#DerivativeWorks" />
        <cc:requires
           rdf:resource="http://creativecommons.org/ns#ShareAlike" />
      </cc:License>
    </rdf:RDF>
  </metadata>
  <defs
     id="defs160197">
    <style
       id="style160195">.cls-1{fill:#b9b9b9;}.cls-2{fill:#545454;}.cls-3{fill:#bf2641;}.cls-4{fill:none;stroke:#f5f5f5;stroke-linecap:round;stroke-linejoin:round;stroke-width:1.75px;}</style>
  </defs>
  <title
     id="title160199">update_lib_symbols_in_schematic</title>
  <path
     class="cls-1"
     d="m 3.4971,0 h 13.9976 a 3.5,3.5 0 0 1 3.5,3.5 v 14 a 3.5,3.5 0 0 1 -3.5,3.5 H 3.497 a 3.5,3.5 0 0 1 -3.5,-3.5 V 3.5 A 3.5,3.5 0 0 1 3.4971,0 Z"
     id="path160201"
     style="fill:#d0c5ac;fill-opacity:1" />
  <path
     class="cls-2"
     d="M 18.32,7.7357 H 16.7783 A 2.1718,2.1718 0 0 0 14.76,6.3539 H 14.3865 A 5.55,5.55 0 0 0 9.2971,2.9792 H 4.8745 A 0.7926,0.7926 0 0 0 4.0817,3.772 V 4.8969 H 2.5194 a 0.7928,0.7928 0 0 0 0,1.5855 h 1.5623 v 4.0922 H 2.5194 a 0.7928,0.7928 0 0 0 0,1.5855 h 1.5623 v 1.1257 a 0.7925,0.7925 0 0 0 0.7928,0.7927 H 9.2973 A 5.5407,5.5407 0 0 0 14.403,10.7031 H 14.76 A 2.1709,2.1709 0 0 0 16.7775,9.3212 H 18.32 a 0.7928,0.7928 0 0 0 0,-1.5855 z M 9.2973,12.493 h -3.63 V 4.5647 h 3.63 A 3.9715,3.9715 0 0 1 12.7505,6.5878 2.1587,2.1587 0 0 0 12.747,10.4672 3.9519,3.9519 0 0 1 9.2973,12.493 Z M 14.76,9.1176 h -1.0481 a 0.5891,0.5891 0 1 1 0,-1.1782 H 14.76 a 0.5891,0.5891 0 0 1 0,1.1782 z"
     id="path160203" />
  <path
     class="cls-3"
     d="M 24.821185,17 A 7.8619642,7.8278516 0 1 1 16.959109,9.1794082 7.8582612,7.8241648 0 0 1 24.821185,17 Z"
     id="path160205"
     style="stroke:#ffffff;stroke-width:1.179;stroke-miterlimit:4;stroke-dasharray:none;stroke-opacity:1" />
  <path
     class="cls-4"
     d="m 13.3726,15.2109 a 4.0454,4.0454 0 0 1 7.4206,0.3972"
     id="path160207" />
  <path
     class="cls-4"
     d="M 20.6382,18.7567 A 4.0449,4.0449 0 0 1 13.083,18.0113"
     id="path160209" />
  <polyline
     class="cls-4"
     points="19.873 19.81 21.665 19.647 22.013 21.529"
     id="polyline160211"
     transform="translate(-1,-1)" />
  <polyline
     class="cls-4"
     points="16.182 16.074 14.39 16.237 14.042 14.355"
     id="polyline160213"
     transform="translate(-1,-1)" />
</svg>
